<?xml version="1.0" encoding="UTF-8" standalone="no"?>
<svg
   xmlns:dc="http://purl.org/dc/elements/1.1/"
   xmlns:cc="http://creativecommons.org/ns#"
   xmlns:rdf="http://www.w3.org/1999/02/22-rdf-syntax-ns#"
   xmlns:svg="http://www.w3.org/2000/svg"
   xmlns="http://www.w3.org/2000/svg"
   xmlns:sodipodi="http://sodipodi.sourceforge.net/DTD/sodipodi-0.dtd"
   xmlns:inkscape="http://www.inkscape.org/namespaces/inkscape"
   enable-background="new 0 0 64 64"
   height="64px"
   version="1.1"
   viewBox="0 0 64 64"
   width="64px"
   xml:space="preserve"
   id="svg24"
   sodipodi:docname="default-cut.svg"
   inkscape:export-filename="/home/karma/Imágenes/Icons/iconfinder_folder_1055055.svg.png"
   inkscape:export-xdpi="384"
   inkscape:export-ydpi="384"
   inkscape:version="0.92.4 (unknown)"><metadata
     id="metadata30"><rdf:RDF><cc:Work
         rdf:about=""><dc:format>image/svg+xml</dc:format><dc:type
           rdf:resource="http://purl.org/dc/dcmitype/StillImage" /><dc:title /></cc:Work></rdf:RDF></metadata><defs
     id="defs28" /><sodipodi:namedview
     pagecolor="#ffffff"
     bordercolor="#666666"
     borderopacity="1"
     objecttolerance="10"
     gridtolerance="10"
     guidetolerance="10"
     inkscape:pageopacity="0"
     inkscape:pageshadow="2"
     inkscape:window-width="1366"
     inkscape:window-height="716"
     id="namedview26"
     showgrid="false"
     inkscape:zoom="7.3750001"
     inkscape:cx="-11.203669"
     inkscape:cy="21.453224"
     inkscape:window-x="0"
     inkscape:window-y="24"
     inkscape:window-maximized="1"
     inkscape:current-layer="svg24" /><g
     id="g932"
     transform="translate(-3,5)"><g
       transform="translate(6,-10)"
       style="fill:#6f73e4;fill-opacity:1"
       id="Layer_1-3"><g
         style="fill:#6f73e4;fill-opacity:1"
         id="g4-6" /><g
         id="g10-7"
         style="opacity:0.2;fill:#6f73e4;fill-opacity:1"><g
           style="fill:#6f73e4;fill-opacity:1"
           id="g8-5" /></g><g
         style="fill:#6f73e4;fill-opacity:1"
         id="g16-3"><g
           style="fill:#6f73e4;fill-opacity:1"
           id="g14-5"><path
             id="path12-6"
             d="m 37,16 c -1.38,0 -2.5,1.103891 -2.5,2.462891 0,0 -0.325,2.256937 -2.5,2.460937 H 31.582031 14.5 c -1.38,0 -2.5,1.062875 -2.5,2.421875 V 45.537109 C 12,46.896109 13.12,48 14.5,48 h 35 c 1.38,0 2.5,-1.103891 2.5,-2.462891 v -19.691406 -2.5 -2.421875 -2.460937 C 52,17.103891 50.88,16 49.5,16 Z"
             style="fill:#45a645;fill-opacity:1"
             inkscape:connector-curvature="0" /></g></g><g
         style="fill:#6f73e4;fill-opacity:1"
         id="g20-2" /></g><g
       id="Layer_1"><g
         id="g4" /><g
         id="g10"
         style="opacity:0.2"><g
           id="g8" /></g><g
         id="g16"><g
           id="g14"><path
             id="path12"
             d="m 37,16 c -1.38,0 -2.5,1.103891 -2.5,2.462891 0,0 -0.325,2.256937 -2.5,2.460937 H 31.582031 14.5 c -1.38,0 -2.5,1.062875 -2.5,2.421875 V 45.537109 C 12,46.896109 13.12,48 14.5,48 h 35 c 1.38,0 2.5,-1.103891 2.5,-2.462891 v -19.691406 -2.5 -2.421875 -2.460937 C 52,17.103891 50.88,16 49.5,16 Z"
             style="fill:#388838;fill-opacity:1"
             inkscape:connector-curvature="0" /></g></g><g
         id="g20" /></g></g><g
     id="Layer_2" /></svg>