<?xml version="1.0" encoding="UTF-8" standalone="no"?>
<svg
   xmlns:dc="http://purl.org/dc/elements/1.1/"
   xmlns:cc="http://creativecommons.org/ns#"
   xmlns:rdf="http://www.w3.org/1999/02/22-rdf-syntax-ns#"
   xmlns:svg="http://www.w3.org/2000/svg"
   xmlns="http://www.w3.org/2000/svg"
   xmlns:sodipodi="http://sodipodi.sourceforge.net/DTD/sodipodi-0.dtd"
   xmlns:inkscape="http://www.inkscape.org/namespaces/inkscape"
   enable-background="new 0 0 64 64"
   height="64px"
   version="1.1"
   viewBox="0 0 64 64"
   width="64px"
   xml:space="preserve"
   id="svg24"
   sodipodi:docname="default-favorites.svg"
   inkscape:export-filename="/home/karma/Imágenes/Icons/iconfinder_folder_1055055.svg.png"
   inkscape:export-xdpi="384"
   inkscape:export-ydpi="384"
   inkscape:version="0.92.4 (unknown)"><metadata
     id="metadata30"><rdf:RDF><cc:Work
         rdf:about=""><dc:format>image/svg+xml</dc:format><dc:type
           rdf:resource="http://purl.org/dc/dcmitype/StillImage" /><dc:title /></cc:Work></rdf:RDF></metadata><defs
     id="defs28" /><sodipodi:namedview
     pagecolor="#ffffff"
     bordercolor="#666666"
     borderopacity="1"
     objecttolerance="10"
     gridtolerance="10"
     guidetolerance="10"
     inkscape:pageopacity="0"
     inkscape:pageshadow="2"
     inkscape:window-width="1366"
     inkscape:window-height="716"
     id="namedview26"
     showgrid="false"
     inkscape:zoom="11.18"
     inkscape:cx="40.449683"
     inkscape:cy="26.032338"
     inkscape:window-x="0"
     inkscape:window-y="24"
     inkscape:window-maximized="1"
     inkscape:current-layer="svg24"
     showguides="false" /><g
     id="Layer_1"><g
       id="g4" /><g
       id="g10"
       opacity="0.2"><g
         id="g8" /></g><g
       id="g16"><g
         id="g14"><path
           style="fill:#ff4141;fill-opacity:1"
           d="M 39.501953 16 C 38.121953 16 37.001953 17.103891 37.001953 18.462891 C 37.001953 18.462891 36.676953 20.719828 34.501953 20.923828 L 34.083984 20.923828 L 17.001953 20.923828 C 15.621953 20.923828 14.501953 21.986703 14.501953 23.345703 L 14.501953 45.537109 C 14.501953 46.896109 15.621953 48 17.001953 48 L 52.001953 48 C 53.381953 48 54.501953 46.896109 54.501953 45.537109 L 54.501953 25.845703 L 54.501953 23.345703 L 54.501953 20.923828 L 54.501953 18.462891 C 54.501953 17.103891 53.381953 16 52.001953 16 L 39.501953 16 z M 44.509766 30.796875 A 0.5 0.5 0 0 1 44.96875 31.126953 L 46.835938 36.179688 L 52 36.179688 A 0.5 0.5 0 0 1 52.316406 37.068359 L 48.28125 40.345703 L 49.619141 45.373047 A 0.5 0.5 0 0 1 48.863281 45.919922 L 44.5 43.09375 L 40.136719 45.919922 A 0.5 0.5 0 0 1 39.382812 45.373047 L 40.720703 40.345703 L 36.685547 37.068359 A 0.5 0.5 0 0 1 37 36.179688 L 42.166016 36.179688 L 44.03125 31.126953 A 0.5 0.5 0 0 1 44.458984 30.798828 A 0.5 0.5 0 0 1 44.509766 30.796875 z M 44.5 32.740234 L 42.982422 36.853516 A 0.5 0.5 0 0 1 42.513672 37.179688 L 38.410156 37.179688 L 41.601562 39.775391 A 0.5 0.5 0 0 1 41.769531 40.292969 L 40.681641 44.376953 L 44.228516 42.080078 A 0.5 0.5 0 0 1 44.771484 42.080078 L 48.320312 44.378906 L 47.232422 40.292969 A 0.5 0.5 0 0 1 47.400391 39.775391 L 50.591797 37.179688 L 46.486328 37.179688 A 0.5 0.5 0 0 1 46.017578 36.853516 L 44.5 32.740234 z "
           id="path12" /></g></g><g
       id="g20" /></g><g
     id="Layer_2" /></svg>