<?xml version="1.0" encoding="UTF-8" standalone="no"?>
<svg
   xmlns:dc="http://purl.org/dc/elements/1.1/"
   xmlns:cc="http://creativecommons.org/ns#"
   xmlns:rdf="http://www.w3.org/1999/02/22-rdf-syntax-ns#"
   xmlns:svg="http://www.w3.org/2000/svg"
   xmlns="http://www.w3.org/2000/svg"
   xmlns:sodipodi="http://sodipodi.sourceforge.net/DTD/sodipodi-0.dtd"
   xmlns:inkscape="http://www.inkscape.org/namespaces/inkscape"
   enable-background="new 0 0 64 64"
   height="64px"
   version="1.1"
   viewBox="0 0 64 64"
   width="64px"
   xml:space="preserve"
   id="svg24"
   sodipodi:docname="default-folder-recent.svg"
   inkscape:export-filename="/home/karma/Imágenes/Icons/iconfinder_folder_1055055.svg.png"
   inkscape:export-xdpi="384"
   inkscape:export-ydpi="384"
   inkscape:version="0.92.4 (unknown)"><metadata
     id="metadata30"><rdf:RDF><cc:Work
         rdf:about=""><dc:format>image/svg+xml</dc:format><dc:type
           rdf:resource="http://purl.org/dc/dcmitype/StillImage" /><dc:title /></cc:Work></rdf:RDF></metadata><defs
     id="defs28" /><sodipodi:namedview
     pagecolor="#ffffff"
     bordercolor="#666666"
     borderopacity="1"
     objecttolerance="10"
     gridtolerance="10"
     guidetolerance="10"
     inkscape:pageopacity="0"
     inkscape:pageshadow="2"
     inkscape:window-width="1366"
     inkscape:window-height="716"
     id="namedview26"
     showgrid="false"
     inkscape:zoom="10.429825"
     inkscape:cx="47.504346"
     inkscape:cy="32.018969"
     inkscape:window-x="0"
     inkscape:window-y="24"
     inkscape:window-maximized="1"
     inkscape:current-layer="svg24"
     showguides="false" /><g
     id="Layer_1"
     style="fill:#ff4141;fill-opacity:1"><g
       id="g4"
       style="fill:#ff4141;fill-opacity:1" /><g
       id="g10"
       opacity="0.2"
       style="fill:#ff4141;fill-opacity:1"><g
         id="g8"
         style="fill:#ff4141;fill-opacity:1" /></g><g
       id="g16"
       style="fill:#ff4141;fill-opacity:1"><g
         id="g14"
         style="fill:#ff4141;fill-opacity:1"><path
           style="fill:#ff4141;fill-opacity:1"
           d="M 37 16 C 35.62 16 34.5 17.103891 34.5 18.462891 C 34.5 18.462891 34.175 20.719828 32 20.923828 L 31.582031 20.923828 L 14.5 20.923828 C 13.12 20.923828 12 21.986703 12 23.345703 L 12 45.537109 C 12 46.896109 13.12 48 14.5 48 L 49.5 48 C 50.88 48 52 46.896109 52 45.537109 L 52 25.845703 L 52 23.345703 L 52 20.923828 L 52 18.462891 C 52 17.103891 50.88 16 49.5 16 L 37 16 z M 42.5 31 A 7.5 7.5 0 0 1 50 38.5 A 7.5 7.5 0 0 1 42.5 46 A 7.5 7.5 0 0 1 35 38.5 A 7.5 7.5 0 0 1 42.5 31 z M 42.5 33.142578 A 5.3571428 5.3571428 0 0 0 37.142578 38.5 A 5.3571428 5.3571428 0 0 0 42.5 43.857422 A 5.3571428 5.3571428 0 0 0 47.857422 38.5 A 5.3571428 5.3571428 0 0 0 42.5 33.142578 z M 41.427734 35.285156 L 43.572266 35.285156 L 43.572266 37.427734 L 45.714844 37.427734 L 45.714844 39.572266 L 41.427734 39.572266 L 41.427734 35.285156 z "
           id="path12" /></g></g><g
       id="g20"
       style="fill:#ff4141;fill-opacity:1" /></g><g
     id="Layer_2" /></svg>