<?xml version="1.0" encoding="UTF-8" standalone="no"?>
<svg
   xmlns:dc="http://purl.org/dc/elements/1.1/"
   xmlns:cc="http://creativecommons.org/ns#"
   xmlns:rdf="http://www.w3.org/1999/02/22-rdf-syntax-ns#"
   xmlns:svg="http://www.w3.org/2000/svg"
   xmlns="http://www.w3.org/2000/svg"
   xmlns:sodipodi="http://sodipodi.sourceforge.net/DTD/sodipodi-0.dtd"
   xmlns:inkscape="http://www.inkscape.org/namespaces/inkscape"
   enable-background="new 0 0 64 64"
   height="64px"
   version="1.1"
   viewBox="0 0 64 64"
   width="64px"
   xml:space="preserve"
   id="svg24"
   sodipodi:docname="default-folder-templates.svg"
   inkscape:export-filename="/home/karma/Imágenes/Icons/iconfinder_folder_1055055.svg.png"
   inkscape:export-xdpi="384"
   inkscape:export-ydpi="384"
   inkscape:version="0.92.4 (unknown)"><metadata
     id="metadata30"><rdf:RDF><cc:Work
         rdf:about=""><dc:format>image/svg+xml</dc:format><dc:type
           rdf:resource="http://purl.org/dc/dcmitype/StillImage" /><dc:title /></cc:Work></rdf:RDF></metadata><defs
     id="defs28" /><sodipodi:namedview
     pagecolor="#ffffff"
     bordercolor="#666666"
     borderopacity="1"
     objecttolerance="10"
     gridtolerance="10"
     guidetolerance="10"
     inkscape:pageopacity="0"
     inkscape:pageshadow="2"
     inkscape:window-width="1366"
     inkscape:window-height="716"
     id="namedview26"
     showgrid="false"
     inkscape:zoom="10.429825"
     inkscape:cx="27.963281"
     inkscape:cy="26.032338"
     inkscape:window-x="0"
     inkscape:window-y="24"
     inkscape:window-maximized="1"
     inkscape:current-layer="svg24"
     showguides="true" /><g
     id="Layer_1"><g
       id="g4" /><g
       id="g10"
       opacity="0.2"><g
         id="g8" /></g><g
       id="g16"><g
         id="g14"><path
           style="fill:#82a7e8;fill-opacity:1"
           d="M 39.501953 16 C 38.121953 16 37.001953 17.103891 37.001953 18.462891 C 37.001953 18.462891 36.676953 20.719828 34.501953 20.923828 L 34.083984 20.923828 L 17.001953 20.923828 C 15.621953 20.923828 14.501953 21.986703 14.501953 23.345703 L 14.501953 45.537109 C 14.501953 46.896109 15.621953 48 17.001953 48 L 52.001953 48 C 53.381953 48 54.501953 46.896109 54.501953 45.537109 L 54.501953 25.845703 L 54.501953 23.345703 L 54.501953 20.923828 L 54.501953 18.462891 C 54.501953 17.103891 53.381953 16 52.001953 16 L 39.501953 16 z M 43.501953 30 L 45.501953 30 L 45.501953 32 L 46.501953 32 C 47.051953 32 47.501953 32.45 47.501953 33 L 47.501953 37 L 46.962891 37.539062 L 48.591797 40.380859 C 49.811797 39.250859 50.501953 37.66 50.501953 36 L 52.501953 36 C 52.501953 38.38 51.441563 40.640156 49.601562 42.160156 L 50.371094 43.5 L 50.501953 46 L 48.632812 44.5 L 47.912109 43.230469 C 46.842109 43.730469 45.681953 44 44.501953 44 C 43.321953 44 42.161797 43.730469 41.091797 43.230469 L 40.371094 44.5 L 38.501953 46 L 38.632812 43.5 L 42.042969 37.539062 L 41.501953 37 L 41.501953 33 C 41.501953 32.45 41.951953 32 42.501953 32 L 43.501953 32 L 43.501953 30 z M 44.501953 34 C 43.951953 34 43.501953 34.45 43.501953 35 C 43.501953 35.55 43.951953 36 44.501953 36 C 45.051953 36 45.501953 35.55 45.501953 35 C 45.501953 34.45 45.051953 34 44.501953 34 z M 43.511719 39 L 42.091797 41.490234 C 42.851797 41.820234 43.671953 42 44.501953 42 C 45.331953 42 46.152109 41.820234 46.912109 41.490234 L 45.492188 39 C 44.772187 39.54 44.141719 39.31 43.511719 39 z "
           id="path12" /></g></g><g
       id="g20" /></g><g
     id="Layer_2" /><g
     transform="matrix(1.0714286,0,0,1.0714286,36.430571,31.928571)"
     style="fill:#5d656b"
     id="g11" /></svg>