<?xml version="1.0" encoding="UTF-8" standalone="no"?>
<svg
   xmlns:dc="http://purl.org/dc/elements/1.1/"
   xmlns:cc="http://creativecommons.org/ns#"
   xmlns:rdf="http://www.w3.org/1999/02/22-rdf-syntax-ns#"
   xmlns:svg="http://www.w3.org/2000/svg"
   xmlns="http://www.w3.org/2000/svg"
   xmlns:sodipodi="http://sodipodi.sourceforge.net/DTD/sodipodi-0.dtd"
   xmlns:inkscape="http://www.inkscape.org/namespaces/inkscape"
   enable-background="new 0 0 64 64"
   height="64px"
   version="1.1"
   viewBox="0 0 64 64"
   width="64px"
   xml:space="preserve"
   id="svg24"
   sodipodi:docname="default-folder-network.svg"
   inkscape:export-filename="/home/karma/Imágenes/Icons/iconfinder_folder_1055055.svg.png"
   inkscape:export-xdpi="384"
   inkscape:export-ydpi="384"
   inkscape:version="0.92.4 (unknown)"><metadata
     id="metadata30"><rdf:RDF><cc:Work
         rdf:about=""><dc:format>image/svg+xml</dc:format><dc:type
           rdf:resource="http://purl.org/dc/dcmitype/StillImage" /><dc:title></dc:title></cc:Work></rdf:RDF></metadata><defs
     id="defs28" /><sodipodi:namedview
     pagecolor="#ffffff"
     bordercolor="#666666"
     borderopacity="1"
     objecttolerance="10"
     gridtolerance="10"
     guidetolerance="10"
     inkscape:pageopacity="0"
     inkscape:pageshadow="2"
     inkscape:window-width="1366"
     inkscape:window-height="717"
     id="namedview26"
     showgrid="false"
     inkscape:zoom="10.429825"
     inkscape:cx="52.376335"
     inkscape:cy="24.80588"
     inkscape:window-x="0"
     inkscape:window-y="23"
     inkscape:window-maximized="1"
     inkscape:current-layer="svg24"
     showguides="true" /><g
     id="Layer_1"><g
       id="g4" /><g
       id="g10"
       opacity="0.2"><g
         id="g8" /></g><g
       id="g16"><g
         id="g14"><path
           style="fill:#26cacf;fill-opacity:1"
           d="M 39.501953 16 C 38.121953 16 37.001953 17.103891 37.001953 18.462891 C 37.001953 18.462891 36.676953 20.719828 34.501953 20.923828 L 34.083984 20.923828 L 17.001953 20.923828 C 15.621953 20.923828 14.501953 21.986703 14.501953 23.345703 L 14.501953 45.537109 C 14.501953 46.896109 15.621953 48 17.001953 48 L 52.001953 48 C 53.381953 48 54.501953 46.896109 54.501953 45.537109 L 54.501953 25.845703 L 54.501953 23.345703 L 54.501953 20.923828 L 54.501953 18.462891 C 54.501953 17.103891 53.381953 16 52.001953 16 L 39.501953 16 z M 44.501953 30 A 8 8 0 0 1 44.501953 46 A 8 8 0 0 1 44.501953 30 z M 44.501953 31 A 7 7 0 0 0 44.501953 45 A 7 7 0 1 0 44.501953 31 z M 43.814453 32 C 43.894453 31.992 43.983453 32.005 44.064453 32 C 44.073453 32.038 44.030453 32.175 43.939453 32.375 C 43.355453 33.649 43.304703 35.17075 43.845703 35.96875 A 2.1 2.1 0 0 1 44.033203 36.28125 C 44.033203 36.29825 43.933453 36.3125 43.814453 36.3125 C 43.533453 36.3125 43.262703 36.14775 42.720703 35.71875 C 42.479703 35.52775 42.184453 35.36775 42.064453 35.34375 C 41.874453 35.30575 41.810453 35.3165 41.564453 35.5625 C 41.334453 35.7925 41.283203 35.915 41.283203 36.125 C 41.283203 36.92 42.214703 37.53425 43.970703 37.90625 C 46.354703 38.41125 46.968203 38.83975 47.033203 40.09375 C 47.116203 41.66575 46.242203 42.8955 44.408203 43.8125 C 44.190203 43.9225 44.062703 43.965 43.970703 44 C 43.929703 43.996 43.886703 44.004 43.845703 44 C 43.830703 43.951 43.814453 43.80675 43.814453 43.59375 C 43.814453 42.75875 43.497953 41.9185 43.001953 41.4375 C 42.868953 41.3085 42.508453 41.0105 42.189453 40.8125 C 41.869453 40.6155 41.543703 40.37925 41.470703 40.28125 C 41.352703 40.11925 41.347453 40.05 41.439453 39.75 C 41.605453 39.201 41.803453 38.87825 42.189453 38.53125 C 42.391453 38.34925 42.582906 38.22275 42.628906 38.21875 C 42.672906 38.21475 42.363203 38.12425 41.908203 38.03125 C 41.454203 37.93825 40.814703 37.749 40.470703 37.625 C 39.842703 37.398 38.950953 36.9085 38.626953 36.5625 L 38.595703 36.53125 A 6.059 6.059 0 0 1 42.095703 32.4375 C 42.456703 32.2845 42.827703 32.17375 43.220703 32.09375 C 43.415703 32.05375 43.612453 32.02 43.814453 32 z M 49.439453 34.84375 C 49.580453 34.93075 50.099953 36.063 50.251953 36.625 C 50.447953 37.35 50.433953 38.5925 50.251953 39.3125 C 50.182953 39.5875 50.125703 39.843 50.095703 39.875 C 50.065703 39.907 49.940453 39.75425 49.814453 39.53125 C 49.688453 39.30925 49.304703 38.82175 48.970703 38.46875 C 48.005703 37.44975 47.847953 36.938 48.251953 36.125 C 48.455953 35.715 49.329453 34.77575 49.439453 34.84375 z "
           id="path12" /></g></g><g
       id="g20" /></g><g
     id="Layer_2" /><g
     transform="matrix(1.0714286,0,0,1.0714286,36.430571,31.928571)"
     style="fill:#5d656b"
     id="g11" /><g
     transform="translate(36.495,30)"
     style="fill:#5d656b"
     id="g11-2" /></svg>